﻿Name,Description
Copy file using HTTP or HTTPS command,"Retrieve a document from specified URL (GET), or send data to server (POST), or replace data on server (PUT)"
Cross-border authentication according to eIDAS technical specification,"Enable secure access to online services available to citizens, businesses or public administrations. "
Invoke Service,"Invoke a Service Task. Can be an invocation to any exposed/accessible service e.g. HRS, CNS, DB (simple query), Jira, SMT, ABAC.
"
Roles/Groups automatic assignment,User Roles /Groups automatic assignment based on rules
Provide Timestamp,A timestamp can be added to a document by trusted Time Stamping Authority (RFC 3161 protocol). It can be used for electronic signature/seal extension.
Execute a process,Create a process instance and run it in an execution engine
Complex reports,"Complex reports on a copy of solution database, e.g. regularly ETL-ed to a Datawarehouse"
Manage Business Rules,Create / Update / Delete / Execute a Business Rule Task.
Provide Time,Time server is connected to a reference clock and provides time to clients using NTP protocol.
Send Notification,"Send a notification to a User. Either a User is expected to carry out an activity (e.g. s/he has been assigned a task), or s/he is only informed that something happened and no further activity is expected. A notification can be sent via e-mail,  or/and via SMS, or/and uploaded to a central repository accessible by users where users expect to receive notifications and regularly check their presence.   "
Authentication with client certificates,"Non-interactive EU Login login with a job account, relying on a X.509 client certificate"
"
Create hash","
A hash function can be used to map data of arbitrary size (string, file) to data of fixed size. Well known algorithms are e.g. MD5, SHA-1, SHA-2 and SHA-3."
Encrypt/Decrypt file with asymmetric cipher,"Public key cryptography, or asymmetrical cryptography, uses pairs of keys: public keys which may be disseminated widely, and private keys which are known only to the owner."
Integration with standard EU Login authentication,User Roles and Groups are provisioned to EU Login and transmitted to client applications during authentication
Loosely coupled authorisation,"Every time an User is going to do an Action on an Object, the Application decides whether s/he has Permission to do that by interpreting User Roles and Groups. No direct runtime communication between the Application and the Authorisation system."
Archive Document/File/Data,Permanently/long-term store selected electronic documents or information for preservation purposes.
Data mining,Data analysis and reporting using data mining and machine learning methods including predictive analytics and other statistical data analytics techniques used for computing the probability of an future outcome given a set amount of input data or discovering hidden patterns in the data
Main Capability,
Compression / decompression,Compression /decompression of a file
Create new identity,"Create a new internal (EC or European institution) or external (EU Member State, or from outside of EU) identity/user"
Dashboards,Dashboards based on continuous collection and visualisation of performance or other data
Validate signature,Validation of signature of a signed or sealed message / file
Manage Forms,"Dynamically create, distribute and analyze forms and online surveys, e.g. IMI, EU Survey."
Manage Records,"Classify, store, access, and dispose of records of an organization."
Calendar Time, 
Fulltext search,"Search for a string in a document, a document repository, or a set of document repositories. To improve performance, potential sources can be regularly scanned to provide a digest to a central index."
Search document,Search for a document in the document repository
Message File transfer, 
Provide connectivity via private network,Provide connectivity via access to private network separated from Internet. Can be e.g. MPLS based network.
Manage checklists,"Create checklist instance, assign it to an user, answer it, complete it. Retrieve data of answered checklist instances, generate reports."
UI to Authorisation system,"User interface to Authorisation system to set up User Roles, Groups and potentially also Permissions to Actions on Objects"
Send/Receive the message (+ the attachment(s)) as e-mail,
Model a process,Model a process using BPMN and/or CMMN and/or DMN standards (Object Management Group)
Extend signature,Extension of signature of a signed or sealed message / file
Manage Job,Get / Execute job (automated action)
Retrieve document,Retrieve a document from the document repository
Exchange messages/files via more than one node,Communication from system to system passes through more than one node. E.g. in four-corner model from System A (corner1) to Access Point of A (corner2) to Access Point of B (corner3) to System B (corner 4)).
NTLM authentication,"
Automatic authentication through the Windows OS on Commission PCs"
Manage Newsletter for distribution by email,"Create / Validate newsletters and their distribution lists, definitions and layouts"
Text/Data transformation,"Any other transformation of text/data, e.g. transformation of format, protocol, type of file (doc to pdf…), data enrichment…"
Tightly coupled authorisation,"Every time an User is going to do an Action on an Object, the Application asks Authorisation system, whether s/he has Permission to do that."
Identity management, 
Manage Scripts,"Create / Update / Delete a Script Task. When a process execution arrives at the script task, the corresponding script is executed."
Sign message/file with an eSignature,Sign a message / file with an eletronic seal (an electronic signature of a legal person)
Analytical information,"Analytical information derived from solution data, e.g. from OLAP cubes"
Manage Logging,Get / Set log level
Business intelligence, 
Identities Overview,Get a list of identities with their attributes and permissions
Simple reports,Simple reports directly on solution database
Process automation, 
Integrate content between two web pages,Integrate two web pages so that items of a web page appear on another web page
Copy file using FTP or SFTP command,Copy file(s) from the local machine to the remote machine (put) or from the remote machine to the local machine (get)
Authentication,
Information management, 
Provide connectivity via public network,Provide connectivity via access to public network - Internet
Exchange message/file via central hub (Node),"Communication between systems passes through the Node. It can be EAI, ESB, JMS Provider or any other node (e.g. e-Trustex)"
Text translation,Translation of a string / document from a language to another language
Issue / Revoke certificate,"Certificates are issued by Certification Authority. When certain certificate is compromised, it is published to Certificate Revocation List."
Manage User Task,"Create / Update / Delete / Assign / Delegate / Claim / Complete a User Task. Comment claimed task, attach document to claimed task. "
Connectivity, 
Message/Data/File validation,"Validate a message/data/file for syntactic and semantic correctness, can be e.g. simple file checksum validation, or validation of XML message according to XML schema."
Store document,Create / update / register / file/ unfile document
Authentication by Service/Proxy Ticket,"
Authentication by Service/Proxy Ticket, integration protocol can be one of CAS, SAML, or WS-*"
Manage filing plan,Search / update the filing plan (files and headings)
Authorisation, 
Manage Trusted Lists,"Browse, edit and monitor Trusted Lists. Each Member State maintains own trusted list (MS TL) of Qualified Trust service providers. EU maintains List of Trusted Lists (LOTL). Qualified certificate can be issued only by trusted Certification Authority."
Get partitions,Get list of the available document repository partitions
Cryptography, 
Sign message/file with an eSeal,Sign a message / file with an eletronic seal (an electronic signature of a legal person)
Manage Content for publication on web page,"Create / Validate / Publish content (like news, events, press releases, funding opportunities, articles, speeches, consultations...) on a web page(s). The content can be organized (e.g. in Universes and Topics)."
Provide Calendar,"Provide a calendar view, an User can book a Timeslot in his/her Calendar, invite other User(s), accept/decline an invitation from other User"
Monitor a process,Collect and display information about running process instances
Manage checklist templates,"Manage checklist templates (for certain business domain). Create, update, delete, activate checklist template."
Transparent authentication through the MDM container,Authenticates a user automatically on a device that is enrolled in the Mobile Device Management environment
Document management, 
