{
  "_name_or_path": "joeddav/xlm-roberta-large-xnli",
  "architectures": [
    "XLMRobertaForSequenceClassification"
  ],
  "attention_probs_dropout_prob": 0.1,
  "bos_token_id": 0,
  "eos_token_id": 2,
  "gradient_checkpointing": false,
  "hidden_act": "gelu",
  "hidden_dropout_prob": 0.1,
  "hidden_size": 1024,
  "id2label": {
    "0": "contradiction",
    "1": "neutral",
    "2": "entailment"
  },
  "initializer_range": 0.02,
  "intermediate_size": 4096,
  "label2id": {
    "contradiction": 0,
    "entailment": 2,
    "neutral": 1
  },
  "layer_norm_eps": 1e-05,
  "max_position_embeddings": 514,
  "model_type": "xlm-roberta",
  "num_attention_heads": 16,
  "num_hidden_layers": 24,
  "output_past": true,
  "pad_token_id": 1,
  "position_embedding_type": "absolute",
  "transformers_version": "4.7.0.dev0",
  "type_vocab_size": 1,
  "use_cache": true,
  "vocab_size": 250002
}
